CIPESA Research UG Tweets Perceptions and Sentiments Analysis
…
# top hashtags across. 
cipesa_HASHTAGS <- cipesa %>%
  tidytext::unnest_tokens(hashed, tweet, "tweets", to_lower = FALSE) %>% # splits across the rows. 
  filter(str_detect(hashed, "^#")) %>%
  count(hashed, sort = TRUE) %>%
  top_n(20)

## Selecting by n

cipesa_HASHTAGS

## # A tibble: 21 x 2
##    hashed                      n
##    <chr>                   <int>
##  1 #ProphetElvisMbonye       860
##  2 #BeautifulUganda          420
##  3 #SecuringYourFuture       175
##  4 #FreeTemsAndOmahLay       171
##  5 #EricaXKukusHairAd        149
##  6 #M7UGsChoice              136
##  7 #WeAreRemovingADictator   136
##  8 #FreeOmahLay              100
##  9 #FreeTems                  92
## 10 #SCVKCCA                   91
## #  with 11 more rows
…
cipesa_MENTIONS <- cipesa %>%
  mutate(tweet = str_remove_all(tweet, "&amp;|&lt;|&gt;"),
         tweet = str_remove_all(tweet, "\\s?(f|ht)(tp)(s?)(://)([^\\.]*)[\\.|/](\\S*)"),
         tweet = str_remove_all(tweet, "[^\x01-\x7F]")) %>% 
  tidytext::unnest_tokens(word, tweet, token = "tweets", to_lower = FALSE) %>%
  filter(!word %in% tidytext::stop_words$word,
        !word %in% str_remove_all(tidytext::stop_words$word, "'"),
        str_detect(word, "[a-z]"),
        !str_detect(word, "^#"),         
        !str_detect(word, "@\\S+")) %>%
  count(word, sort = TRUE)
cipesa_MENTIONS

## # A tibble: 34,405 x 2
##    word       n
##    <chr>  <int>
##  1 follow  1770
##  2 The     1425
##  3 We      1192
##  4 Uganda  1085
##  5 You      927
##  6 Follow   843
##  7 people   835
##  8 This     711
##  9 Its      591
## 10 time     579
## #  with 34,395 more rows
…
